module gitlab.com/hounder/safeclient

go 1.17

require (
	github.com/jak0ne/safeclient v0.1.2
	github.com/projectdiscovery/networkpolicy v0.0.1
)

require (
	github.com/projectdiscovery/iputil v0.0.0-20210414194613-4b4d2517acf0 // indirect
	github.com/projectdiscovery/mapcidr v0.0.6 // indirect
	github.com/yl2chen/cidranger v1.0.2 // indirect
)
